{
    "LicenseFile": "../epd.lic",
    "LoggingSeverityLevel": "TRACE",
    "LoggingStyle": "rotate",
    "LoggingDir": "../log",
    "DataSourceType": "Database",
    "StartDate": "2015-01-01",
    "RebalanceRecurrenceType": "E",
    "RebalanceFrequencyType": "M",
    "StaticDataSource": {
        "DBType":     "SQLite",
        "DBString":   "../data/NF_sds.db"
    },
    "RiskModelSource": {
        "DBType":     "SQLite",
        "DBString":   "../data/NF_model.db",
        "RiskModelFactorReturnMultiplier": 0.01
    },
    "FundamentalDataSource": {
        "DBType":     "SQLite",
        "DBString":   "../data/TRKD.db",
        "Tables": [
            "RatioReportsForecastData",
            "RatioReportsRatiosFinancialStrength",
            "RatioReportsRatiosGrowth",
            "RatioReportsRatiosIncomeStatement",
            "RatioReportsRatiosMargins",
            "RatioReportsRatiosMgmtEffectiveness",
            "RatioReportsRatiosPerShareData",
            "RatioReportsRatiosPriceAndVolume",
            "RatioReportsRatiosValuation"
        ]
    }
}
